Homework 1 solutions – BSC6926fall2024
…
Short answer: The year with the highest mean CPUE is 0.9904098 in 1991. The year with the lowest mean CPUE is 0.5793073 in 2015. The species with the highest CPUE is always Spotted seatrout, but the minimum is both Crevalle Jack and Red drum depending on the year

(4 pts) Add 2 new columns to the dataframe/tibble from question 2. One column should contain the proportion of the yearly total CPUE for each species. The other column should scale CPUE so that the yearly catch is relative to the maximum CPUE for that species.

df_n = df_l |> 
      group_by(Year) |> 
      mutate(prop = CPUE/sum(CPUE)) |> 
      group_by(species) |> 
      mutate(sCPUE = CPUE/max(CPUE)) |> 
      ungroup()

df_n
## # A tibble: 114 × 5
##     Year species           CPUE  prop sCPUE
##    <dbl> <chr>            <dbl> <dbl> <dbl>
##  1  1980 Crevalle jack    0.752 0.289 0.740
##  2  1980 Red drum         0.818 0.315 0.892
##  3  1980 Spotted seatrout 1.03  0.396 0.711
##  4  1981 Crevalle jack    0.741 0.271 0.730
##  5  1981 Red drum         0.811 0.296 0.885
##  6  1981 Spotted seatrout 1.19  0.433 0.820
##  7  1982 Crevalle jack    0.847 0.298 0.834
##  8  1982 Red drum         0.695 0.245 0.759
##  9  1982 Spotted seatrout 1.30  0.458 0.899
## 10  1983 Crevalle jack    0.707 0.244 0.696
## # ℹ 104 more rows
…
(2 pts) Classify the CPUE for each species as a below average (< 40% quantile), average (between 40-60% quantile), or above average year.

df_q = df_n |> 
      group_by(species) |> 
      mutate(class = case_when(
            CPUE < quantile(CPUE, 0.4) ~ 'Below average',
            between(CPUE, 
                    quantile(CPUE, 0.4), 
                    quantile(CPUE, 0.6)) ~ 'Average',
            CPUE > quantile(CPUE, 0.6) ~ 'Above average'
      ))

df_q
## # A tibble: 114 × 6
## # Groups:   species [3]
##     Year species           CPUE  prop sCPUE class        
##    <dbl> <chr>            <dbl> <dbl> <dbl> <chr>        
##  1  1980 Crevalle jack    0.752 0.289 0.740 Above average
##  2  1980 Red drum         0.818 0.315 0.892 Above average
##  3  1980 Spotted seatrout 1.03  0.396 0.711 Below average
##  4  1981 Crevalle jack    0.741 0.271 0.730 Above average
##  5  1981 Red drum         0.811 0.296 0.885 Above average
##  6  1981 Spotted seatrout 1.19  0.433 0.820 Above average
##  7  1982 Crevalle jack    0.847 0.298 0.834 Above average
##  8  1982 Red drum         0.695 0.245 0.759 Above average
##  9  1982 Spotted seatrout 1.30  0.458 0.899 Above average
## 10  1983 Crevalle jack    0.707 0.244 0.696 Above average
## # ℹ 104 more rows
…
        df_q$comp_fl[df_q$species == 'Spotted seatrout'& df_q$Year == yrs[i]] = 
            df_q$CPUE[df_q$species == 'Spotted seatrout'& df_q$Year == yrs[i]] > 
            df_q$CPUE[df_q$species == 'Spotted seatrout'& df_q$Year == yrs[i-1]]
}

# dplyr
df_q = df_q |> 
      group_by(species) |> 
      mutate(comp_dp = CPUE > lag(CPUE))

df_q
## # A tibble: 114 × 8
## # Groups:   species [3]
##     Year species           CPUE  prop sCPUE class         comp_fl comp_dp
##    <dbl> <chr>            <dbl> <dbl> <dbl> <chr>         <lgl>   <lgl>  
##  1  1980 Crevalle jack    0.752 0.289 0.740 Above average NA      NA     
##  2  1980 Red drum         0.818 0.315 0.892 Above average NA      NA     
##  3  1980 Spotted seatrout 1.03  0.396 0.711 Below average NA      NA     
##  4  1981 Crevalle jack    0.741 0.271 0.730 Above average FALSE   FALSE  
##  5  1981 Red drum         0.811 0.296 0.885 Above average FALSE   FALSE  
##  6  1981 Spotted seatrout 1.19  0.433 0.820 Above average TRUE    TRUE   
##  7  1982 Crevalle jack    0.847 0.298 0.834 Above average TRUE    TRUE   
##  8  1982 Red drum         0.695 0.245 0.759 Above average FALSE   FALSE  
##  9  1982 Spotted seatrout 1.30  0.458 0.899 Above average TRUE    TRUE   
## 10  1983 Crevalle jack    0.707 0.244 0.696 Above average FALSE   FALSE  
## # ℹ 104 more rows
…
