key_ws6 – BSC6926fall2024
…
years = 50

# place to store data
pop = tibble(time = 0:years,
             Nt = NA, 
             s1 = NA,
             s2 = NA)

pop$Nt[pop$time == 0] = sum(p)
pop$s1[pop$time == 0] = p[1]
pop$s2[pop$time == 0] = p[2]

pop
## # A tibble: 51 × 4
##     time    Nt    s1    s2
##    <int> <dbl> <dbl> <dbl>
##  1     0    75    50    25
##  2     1    NA    NA    NA
##  3     2    NA    NA    NA
##  4     3    NA    NA    NA
##  5     4    NA    NA    NA
##  6     5    NA    NA    NA
##  7     6    NA    NA    NA
##  8     7    NA    NA    NA
##  9     8    NA    NA    NA
## 10     9    NA    NA    NA
## # ℹ 41 more rows
…
years = 50

# place to store data
pop = tibble(time = 0:years,
             Nt = NA, 
             s1 = NA,
             s2 = NA)

pop$Nt[pop$time == 0] = sum(p)
pop$s1[pop$time == 0] = p[1]
pop$s2[pop$time == 0] = p[2]

pop
## # A tibble: 51 × 4
##     time    Nt    s1    s2
##    <int> <dbl> <dbl> <dbl>
##  1     0    75    50    25
##  2     1    NA    NA    NA
##  3     2    NA    NA    NA
##  4     3    NA    NA    NA
##  5     4    NA    NA    NA
##  6     5    NA    NA    NA
##  7     6    NA    NA    NA
##  8     7    NA    NA    NA
##  9     8    NA    NA    NA
## 10     9    NA    NA    NA
## # ℹ 41 more rows
…
