Workshop 1: Introduction to R – BSC6926fall2024
…
read_csv('data/LDWFBayAnchovy2007.csv')
## Rows: 60 Columns: 5
## ── Column specification ────────────────────────────────────────────────────────
## Delimiter: ","
## chr  (2): species, basin
## dbl  (2): num, seines
## date (1): date
## 
## ℹ Use `spec()` to retrieve the full column specification for this data.
## ℹ Specify the column types or set `show_col_types = FALSE` to quiet this message.
## # A tibble: 60 × 5
##    species     basin     date         num seines
##    <chr>       <chr>     <date>     <dbl>  <dbl>
##  1 Bay Anchovy Barataria 2007-01-01   271      5
##  2 Bay Anchovy Barataria 2007-02-01    10      7
##  3 Bay Anchovy Barataria 2007-03-01    37      8
##  4 Bay Anchovy Barataria 2007-04-01   354      9
##  5 Bay Anchovy Barataria 2007-05-01   879     10
##  6 Bay Anchovy Barataria 2007-06-01  1429     10
##  7 Bay Anchovy Barataria 2007-07-01   542     13
##  8 Bay Anchovy Barataria 2007-08-01   171      3
##  9 Bay Anchovy Barataria 2007-09-01   481     13
## 10 Bay Anchovy Barataria 2007-10-01  1317     19
## # ℹ 50 more rows

# read in data file from github
# need to use raw file
read_csv(url('https://raw.githubusercontent.com/SeascapeEcologyLab-workshops/BSC6926-B52_Fall2024/main/data/LDWFBayAnchovy2007.csv'))
## Rows: 60 Columns: 5
## ── Column specification ────────────────────────────────────────────────────────
## Delimiter: ","
## chr  (2): species, basin
## dbl  (2): num, seines
## date (1): date
## 
## ℹ Use `spec()` to retrieve the full column specification for this data.
## ℹ Specify the column types or set `show_col_types = FALSE` to quiet this message.
## # A tibble: 60 × 5
##    species     basin     date         num seines
##    <chr>       <chr>     <date>     <dbl>  <dbl>
##  1 Bay Anchovy Barataria 2007-01-01   271      5
##  2 Bay Anchovy Barataria 2007-02-01    10      7
##  3 Bay Anchovy Barataria 2007-03-01    37      8
##  4 Bay Anchovy Barataria 2007-04-01   354      9
##  5 Bay Anchovy Barataria 2007-05-01   879     10
##  6 Bay Anchovy Barataria 2007-06-01  1429     10
##  7 Bay Anchovy Barataria 2007-07-01   542     13
##  8 Bay Anchovy Barataria 2007-08-01   171      3
##  9 Bay Anchovy Barataria 2007-09-01   481     13
## 10 Bay Anchovy Barataria 2007-10-01  1317     19
## # ℹ 50 more rows
…
## Mazda RX4  21   6  160 110  3.9 2.62 16.46  0  1    4    4
# 2nd row of first column
mtcars[2,1]
## [1] 21
# can call specific columns (called as a vector)
mtcars$mpg
##  [1] 21.0 21.0 22.8 21.4 18.7 18.1 14.3 24.4 22.8 19.2 17.8 16.4 17.3 15.2 10.4
## [16] 10.4 14.7 32.4 30.4 33.9 21.5 15.5 15.2 13.3 19.2 27.3 26.0 30.4 15.8 19.7
## [31] 15.0 21.4
mtcars$cyl
##  [1] 6 6 4 6 8 6 8 4 4 6 6 8 8 8 8 8 8 4 4 4 4 8 8 8 8 4 4 4 8 6 8 4
#same for tibble
d = mtcars %>% as_tibble
d[1]
## # A tibble: 32 × 1
##      mpg
##    <dbl>
##  1  21  
##  2  21  
##  3  22.8
##  4  21.4
##  5  18.7
##  6  18.1
##  7  14.3
##  8  24.4
##  9  22.8
## 10  19.2
## # ℹ 22 more rows
…
