Workshop 4: Density independent models – BSC6926fall2024
…
Density independent continuous population models

\(r\) is the instantaneous per capita growth rate. It’s value determines how population size will change over time.

What are we doing here?

r = c(-0.03, -0.02, 0, 0.02, 0.03)

N_0 = 10
years = 100 #hundred time steps
pop = tibble(time = rep(0:years, times = length(r)),
              Nt = NA, growth = rep(r, each = years+1))
pop
## # A tibble: 505 × 3
##     time Nt    growth
##    <int> <lgl>  <dbl>
##  1     0 NA     -0.03
##  2     1 NA     -0.03
##  3     2 NA     -0.03
##  4     3 NA     -0.03
##  5     4 NA     -0.03
##  6     5 NA     -0.03
##  7     6 NA     -0.03
##  8     7 NA     -0.03
##  9     8 NA     -0.03
## 10     9 NA     -0.03
## # ℹ 495 more rows

for(i in seq_along(pop$time)){
  pop$Nt[i] = N_0  * exp(pop$growth[i] * pop$time[i])
}
pop
## # A tibble: 505 × 3
##     time    Nt growth
##    <int> <dbl>  <dbl>
##  1     0 10     -0.03
##  2     1  9.70  -0.03
##  3     2  9.42  -0.03
##  4     3  9.14  -0.03
##  5     4  8.87  -0.03
##  6     5  8.61  -0.03
##  7     6  8.35  -0.03
##  8     7  8.11  -0.03
##  9     8  7.87  -0.03
## 10     9  7.63  -0.03
## # ℹ 495 more rows

Also can be done in dplyr

#Using dplyr
pop = pop  |>  
  mutate(Nt.2 = N_0 * exp(growth*time), 
         ln.Nt = log(Nt.2))
pop
## # A tibble: 505 × 5
##     time    Nt growth  Nt.2 ln.Nt
##    <int> <dbl>  <dbl> <dbl> <dbl>
##  1     0 10     -0.03 10     2.30
##  2     1  9.70  -0.03  9.70  2.27
##  3     2  9.42  -0.03  9.42  2.24
##  4     3  9.14  -0.03  9.14  2.21
##  5     4  8.87  -0.03  8.87  2.18
##  6     5  8.61  -0.03  8.61  2.15
##  7     6  8.35  -0.03  8.35  2.12
##  8     7  8.11  -0.03  8.11  2.09
##  9     8  7.87  -0.03  7.87  2.06
## 10     9  7.63  -0.03  7.63  2.03
## # ℹ 495 more rows
…
