Workshop 6: Demographic matrix models – BSC6926fall2024
…
# place to store data
pop = tibble(time = 0:years,
             Nt = NA, 
             juvs = NA,
             adults = NA)

pop$Nt[pop$time == 0] = sum(p)
pop$juvs[pop$time == 0] = p[1]
pop$adults[pop$time == 0] = p[2]

pop
## # A tibble: 51 × 4
##     time    Nt  juvs adults
##    <int> <dbl> <dbl>  <dbl>
##  1     0   150    50    100
##  2     1    NA    NA     NA
##  3     2    NA    NA     NA
##  4     3    NA    NA     NA
##  5     4    NA    NA     NA
##  6     5    NA    NA     NA
##  7     6    NA    NA     NA
##  8     7    NA    NA     NA
##  9     8    NA    NA     NA
## 10     9    NA    NA     NA
## # ℹ 41 more rows
…
# starting population size
n = c(4264, 3, 30, 16, 25, 5)
names(n) = c("seed", "seedlings", "tiny", "small", "medium","large")

# projection with equal probabilities 
x.eq = stoch.projection(matrices = hudsonia, n0 = n, nreps = 100) %>% 
  as_tibble() %>% 
  mutate(rep = row_number(),
         total = seed + seedlings + tiny + small + medium + large,
         type = 'equal')

x.eq
## # A tibble: 100 × 9
##     seed seedlings  tiny small medium large   rep total type 
##    <dbl>     <dbl> <dbl> <dbl>  <dbl> <dbl> <int> <dbl> <chr>
##  1 1068.     0.877 2.90  3.81   5.21   5.04     1 1086. equal
##  2  718.     0.429 3.10  2.18   3.95   5.36     2  733. equal
##  3  555.     0.332 1.29  0.835  2.52   3.93     3  564. equal
##  4  237.     0.195 1.05  1.11   1.52   1.06     4  242. equal
##  5  580.     0.346 3.50  2.36   4.53   3.55     5  594. equal
##  6  266.     0.159 0.748 0.478  0.905  2.18     6  271. equal
##  7 1248.     1.03  2.07  3.35   3.91   6.80     7 1265. equal
##  8  646.     0.386 1.76  1.13   2.19   5.45     8  657. equal
##  9  511.     0.313 2.12  1.81   2.85   2.39     9  521. equal
## 10  461.     0.379 2.06  2.28   2.57   2.11    10  470. equal
## # ℹ 90 more rows

# unequal probabilities for projection matrices
x.uneq = stoch.projection(matrices = hudsonia, n0 = n, nreps = 100, prob = c(0.2, 0.2, 0.2, 0.4))%>% 
  as_tibble() %>% 
  mutate(rep = row_number(),
         total = seed + seedlings + tiny + small + medium + large,
         type = 'unequal')

x.uneq
## # A tibble: 100 × 9
##     seed seedlings  tiny small medium large   rep total type   
##    <dbl>     <dbl> <dbl> <dbl>  <dbl> <dbl> <int> <dbl> <chr>  
##  1  630.     0.376 1.67  0.902  2.47   5.35     1  641. unequal
##  2  713.     0.426 2.64  1.49   3.73   5.61     2  727. unequal
##  3  464.     0.283 2.81  2.40   2.23   1.61     3  473. unequal
##  4  376.     0.310 0.596 0.473  0.309  3.65     4  382. unequal
##  5 1170.     0.963 3.89  4.56   6.31   5.85     5 1191. unequal
##  6 1126.     0.688 6.03  5.41   5.92   4.10     6 1148. unequal
##  7 2366.     1.95  5.57  5.41   6.05  22.1      7 2407. unequal
##  8  687.     0.563 2.14  2.67   3.77   2.78     8  699. unequal
##  9 1706.     1.02  4.96  3.75   9.63  10.9      9 1736. unequal
## 10 1324.     1.09  3.53  4.94   5.56   7.34    10 1347. unequal
## # ℹ 90 more rows
…
