Workshop 7: Community data: diversity metrics – BSC6926fall2024
…
marsh_w
## # A tibble: 90 × 63
##    site  date       basin     `Speckled Madtom` `Sailfin Molly` `Blue Crab`
##    <chr> <date>     <chr>                 <dbl>           <dbl>       <dbl>
##  1 15    2007-01-10 Calcasieu                 2               1          10
##  2 15    2007-02-22 Calcasieu                 0               0           0
##  3 15    2007-03-02 Calcasieu                 0               0          19
##  4 15    2007-04-11 Calcasieu                 0               2          23
##  5 15    2007-06-05 Calcasieu                 0               0           0
##  6 15    2007-07-24 Calcasieu                 0               0           3
##  7 15    2007-08-07 Calcasieu                 0               0           6
##  8 15    2007-09-20 Calcasieu                 0               0           0
##  9 15    2007-09-27 Calcasieu                 0               0           0
## 10 15    2007-10-03 Calcasieu                 0               0           0
## # ℹ 80 more rows
## # ℹ 57 more variables: `Atlantic Croaker` <dbl>, `Gulf Menhaden` <dbl>,
## #   `Grass Shrimp` <dbl>, `Striped Mullet` <dbl>, `Inland Silverside` <dbl>,
## #   `Sheepshead Minnow` <dbl>, `Gulf Killifish` <dbl>, `Freshwater Goby` <dbl>,
## #   `Mosquito Fish` <dbl>, `White Shrimp` <dbl>, `Bay Anchovy` <dbl>,
## #   `Southern Flounder` <dbl>, `Diamond Killifish` <dbl>, `Naked Goby` <dbl>,
## #   `Brown Shrimp` <dbl>, `Sand Seatrout` <dbl>, Pinfish <dbl>, …

# convert to long format for plotting
marsh_l = marsh_w |> 
  pivot_longer(cols = 4:62, 
               names_to = "Species", 
               values_to = "Count") 

marsh_l
## # A tibble: 5,310 × 6
##    site  date       basin     month Species           Count
##    <chr> <date>     <chr>     <dbl> <chr>             <dbl>
##  1 15    2007-01-10 Calcasieu     1 Speckled Madtom       2
##  2 15    2007-01-10 Calcasieu     1 Sailfin Molly         1
##  3 15    2007-01-10 Calcasieu     1 Blue Crab            10
##  4 15    2007-01-10 Calcasieu     1 Atlantic Croaker     47
##  5 15    2007-01-10 Calcasieu     1 Gulf Menhaden         5
##  6 15    2007-01-10 Calcasieu     1 Grass Shrimp        134
##  7 15    2007-01-10 Calcasieu     1 Striped Mullet        2
##  8 15    2007-01-10 Calcasieu     1 Inland Silverside    50
##  9 15    2007-01-10 Calcasieu     1 Sheepshead Minnow    10
## 10 15    2007-01-10 Calcasieu     1 Gulf Killifish        1
## # ℹ 5,300 more rows
…
Shannon

The Shannon diversity index (\(H'\)) is a diversity metric that accounts for species proportions and is calculated with the following formula: \[H' = -\sum_{i=1}^S p_i \log(p_i)\] where \(p_i\) is the proportion of species \(i\). The higher the value of \(H'\), the higher the diversity of species in a particular community. The lower the value of H, the lower the diversity. A value of \(H'\) = 0 indicates a community that only has one species.

# for loop
df = unique(marsh_l[c("site","month")])
df$H = NA

df
## # A tibble: 69 × 3
##    site  month H    
##    <chr> <dbl> <lgl>
##  1 15        1 NA   
##  2 15        2 NA   
##  3 15        3 NA   
##  4 15        4 NA   
##  5 15        6 NA   
##  6 15        7 NA   
##  7 15        8 NA   
##  8 15        9 NA   
##  9 15       10 NA   
## 10 15       11 NA   
## # ℹ 59 more rows

for (i in 1:nrow(df)){
  d = marsh_l |> filter(site == df$site[i],
                          month == df$month[i],
                          Count > 0)
  d = d |> count(Species,wt = Count) |> 
    mutate(pi = n/sum(n),
           ln_pi = log(pi),
           p_ln_pi = pi*ln_pi)
  
  df$H[i] = -sum(d$p_ln_pi)
}

df
## # A tibble: 69 × 3
##    site  month     H
##    <chr> <dbl> <dbl>
##  1 15        1 1.43 
##  2 15        2 0.405
##  3 15        3 1.28 
##  4 15        4 0.978
##  5 15        6 1.46 
##  6 15        7 1.39 
##  7 15        8 1.68 
##  8 15        9 1.15 
##  9 15       10 0.915
## 10 15       11 0.360
## # ℹ 59 more rows
…
Simpson

Another popular set of indices are Simpson’s indices. The Simpson index calculated is a dominance metric and is calculated \[D = \sum_{i=1}^S p_i^2\] It ranges between 0 and 1 with high values indicating that abundance is made up of a few species. Its counter part \(1 - D\) is an evenness index. The inverse \(1/D\) is an indication of the richness in a community with uniform evenness that would have the same level of diversity.

# for loop
df$D = NA
df
## # A tibble: 69 × 4
##    site  month     H D    
##    <chr> <dbl> <dbl> <lgl>
##  1 15        1 1.43  NA   
##  2 15        2 0.405 NA   
##  3 15        3 1.28  NA   
##  4 15        4 0.978 NA   
##  5 15        6 1.46  NA   
##  6 15        7 1.39  NA   
##  7 15        8 1.68  NA   
##  8 15        9 1.15  NA   
##  9 15       10 0.915 NA   
## 10 15       11 0.360 NA   
## # ℹ 59 more rows

for (i in 1:nrow(df)){
  d = marsh_l |> filter(site == df$site[i],
                        month == df$month[i],
                        Count > 0)
  d = d |> count(Species,wt = Count) |> 
    mutate(pi = n/sum(n))
  
  df$D[i] = sum(d$pi^2)
}
df$even = 1 - df$D
df$inv = 1/df$D

df
## # A tibble: 69 × 6
##    site  month     H     D  even   inv
##    <chr> <dbl> <dbl> <dbl> <dbl> <dbl>
##  1 15        1 1.43  0.331 0.669  3.02
##  2 15        2 0.405 0.824 0.176  1.21
##  3 15        3 1.28  0.360 0.640  2.78
##  4 15        4 0.978 0.515 0.485  1.94
##  5 15        6 1.46  0.290 0.710  3.45
##  6 15        7 1.39  0.343 0.657  2.92
##  7 15        8 1.68  0.247 0.753  4.04
##  8 15        9 1.15  0.385 0.615  2.60
##  9 15       10 0.915 0.496 0.504  2.02
## 10 15       11 0.360 0.860 0.140  1.16
## # ℹ 59 more rows
…
