Workshop 8: Community data: vegan and multivariate methods – BSC6926fall2024
…
marsh_w
## # A tibble: 90 × 63
##    site  date       basin     `Speckled Madtom` `Sailfin Molly` `Blue Crab`
##    <chr> <date>     <chr>                 <dbl>           <dbl>       <dbl>
##  1 15    2007-01-10 Calcasieu                 2               1          10
##  2 15    2007-02-22 Calcasieu                 0               0           0
##  3 15    2007-03-02 Calcasieu                 0               0          19
##  4 15    2007-04-11 Calcasieu                 0               2          23
##  5 15    2007-06-05 Calcasieu                 0               0           0
##  6 15    2007-07-24 Calcasieu                 0               0           3
##  7 15    2007-08-07 Calcasieu                 0               0           6
##  8 15    2007-09-20 Calcasieu                 0               0           0
##  9 15    2007-09-27 Calcasieu                 0               0           0
## 10 15    2007-10-03 Calcasieu                 0               0           0
## # ℹ 80 more rows
## # ℹ 57 more variables: `Atlantic Croaker` <dbl>, `Gulf Menhaden` <dbl>,
## #   `Grass Shrimp` <dbl>, `Striped Mullet` <dbl>, `Inland Silverside` <dbl>,
## #   `Sheepshead Minnow` <dbl>, `Gulf Killifish` <dbl>, `Freshwater Goby` <dbl>,
## #   `Mosquito Fish` <dbl>, `White Shrimp` <dbl>, `Bay Anchovy` <dbl>,
## #   `Southern Flounder` <dbl>, `Diamond Killifish` <dbl>, `Naked Goby` <dbl>,
## #   `Brown Shrimp` <dbl>, `Sand Seatrout` <dbl>, Pinfish <dbl>, …
…
Diversity across spatial scales can be further be partitioned in one of two ways, either using additive or multiplicative partitioning.

Additive partitioning

Additive partitioning is \[\overline{\alpha} + \beta = \gamma\] where \(\alpha\) is the average diversity of samples, \(\gamma\) is the diversity of pooled samples and \(\beta\) is found as \[\beta = \gamma - \overline{\alpha}\] We can think of \(\beta\) as the average number of species not found in a sample, but which we know to be in the region. Additive partitioning allows direct comparison of average richness among samples at any hierarchical level of organization because all three measures of diversity \(\alpha\), \(\beta\), and \(\gamma\) are expressed in the same units. This makes it analogous to partitioning variance in ANOVA. This is not the case for multiplicative partitioning diversity.

# gamma diversity
# convert to long format for plotting
marsh_l = marsh_w |> 
  pivot_longer(cols = 4:62, 
               names_to = "Species", 
               values_to = "Count") 

marsh_l
## # A tibble: 5,310 × 6
##    site  date       basin     month Species           Count
##    <chr> <date>     <chr>     <dbl> <chr>             <dbl>
##  1 15    2007-01-10 Calcasieu     1 Speckled Madtom       2
##  2 15    2007-01-10 Calcasieu     1 Sailfin Molly         1
##  3 15    2007-01-10 Calcasieu     1 Blue Crab            10
##  4 15    2007-01-10 Calcasieu     1 Atlantic Croaker     47
##  5 15    2007-01-10 Calcasieu     1 Gulf Menhaden         5
##  6 15    2007-01-10 Calcasieu     1 Grass Shrimp        134
##  7 15    2007-01-10 Calcasieu     1 Striped Mullet        2
##  8 15    2007-01-10 Calcasieu     1 Inland Silverside    50
##  9 15    2007-01-10 Calcasieu     1 Sheepshead Minnow    10
## 10 15    2007-01-10 Calcasieu     1 Gulf Killifish        1
## # ℹ 5,300 more rows
…
