Workshop 9: Community data: trajectories – BSC6926fall2024
…
## Loading required package: permute
## Loading required package: lattice
## This is vegan 2.6-8
# load data and create community matrix
df = read_csv('data/LDWFseine_monthly2007.csv') 
## Rows: 60 Columns: 127
## ── Column specification ────────────────────────────────────────────────────────
## Delimiter: ","
## chr   (1): basin
## dbl (126): month, Atlantic Croaker, Atlantic Stingray, Bay Anchovy, Bay Whif...
## 
## ℹ Use `spec()` to retrieve the full column specification for this data.
## ℹ Specify the column types or set `show_col_types = FALSE` to quiet this message.
df
## # A tibble: 60 × 127
##    basin  month `Atlantic Croaker` `Atlantic Stingray` `Bay Anchovy` `Bay Whiff`
##    <chr>  <dbl>              <dbl>               <dbl>         <dbl>       <dbl>
##  1 Barat…     1               4.67                   1         54.2            1
##  2 Barat…     2              13.3                    0          1.43           2
##  3 Barat…     3              11.7                    0          4.62           1
##  4 Barat…     4              10.3                    0         39.3            0
##  5 Barat…     5               4.1                    0         87.9            1
##  6 Barat…     6               2.57                   0        143.            12
##  7 Barat…     7               1.67                   0         41.7            1
##  8 Barat…     8               3.2                    0         57              0
##  9 Barat…     9               1                      1         37              0
## 10 Barat…    10               2.33                   0         69.3            1
## # ℹ 50 more rows
## # ℹ 121 more variables: `Blue Crab` <dbl>, `Brown Shrimp` <dbl>,
## #   `Darter Goby` <dbl>, `Diamond Killifish` <dbl>, `Grass Shrimp Spp.` <dbl>,
## #   `Gulf Killifish` <dbl>, `Gulf Menhaden` <dbl>, `Gulf Pipefish` <dbl>,
## #   `Inland Silverside` <dbl>, `Mosquito Fish` <dbl>, `Naked Goby` <dbl>,
## #   `Sharptail Goby` <dbl>, `Sheepshead Minnow` <dbl>, Skilletfish <dbl>,
## #   `Spotted Porcelain Crab` <dbl>, `Spotted Seatrout` <dbl>, …
…
